…
The `oldr` package provides functions to use for all steps after data
collection. These functions were developed specifically for the data
structure created by the
[EpiData](https://www.dropbox.com/s/2kudlxjqcqn8wph/RAMOP%20data%20entry%20files%20%28English%29.zip?dl=0)
or the [Open Data Kit](https://ona.io/helpage/75817/368135/form.xls)
collection tools. The data structure produced by these collection tools
is shown by the dataset `testSVY` included in the `oldr` package.

``` r
testSVY
#> # A tibble: 192 × 90
#>      ad2   psu    hh    id    d1    d2    d3    d4    d5    f1   f2a   f2b   f2c
#>    <int> <int> <int> <int> <int> <int> <int> <int> <int> <int> <int> <int> <int>
#>  1     1   201     1     1     1    67     2     5     2     3     2     1     1
#>  2     1   201     2     1     1    74     1     2     2     3     2     1     1
#>  3     1   201     3     1     1    60     1     2     2     2     2     2     2
#>  4     1   201     3     2     1    60     2     2     2     3     2     2     1
#>  5     1   201     4     1     1    85     2     5     2     3     2     1     1
#>  6     1   201     5     1     2    86     1     5     1     4     2     1     1
#>  7     1   201     6     1     1    80     1     5     2     3     2     1     1
#>  8     1   201     6     2     1    60     2     5     2     3     2     2     1
#>  9     1   201     7     1     1    62     1     2     2     2     2     1     1
#> 10     1   201     8     1     1    72     2     5     2     2     2     1     1
#> # ℹ 182 more rows
#> # ℹ 77 more variables: f2d <int>, f2e <int>, f2f <int>, f2g <int>, f2h <int>,
#> #   f2i <int>, f2j <int>, f2k <int>, f2l <int>, f2m <int>, f2n <int>,
#> #   f2o <int>, f2p <int>, f2q <int>, f2r <int>, f2s <int>, f3 <int>, f4 <int>,
#> #   f5 <int>, f6 <int>, f7 <int>, a1 <int>, a2 <int>, a3 <int>, a4 <int>,
#> #   a5 <int>, a6 <int>, a7 <int>, a8 <int>, k6a <int>, k6b <int>, k6c <int>,
#> #   k6d <int>, k6e <int>, k6f <int>, ds1 <int>, ds2 <int>, ds3 <int>, …
```
…
For a standard RAM-OP implementation, this step is performed in R as
follows:

``` r
## Process and recode all standard RAM-OP indicators in the testSVY dataset
create_op(svy = testSVY)
```

which results in the following output:

    #> # A tibble: 192 × 138
    #>      psu  sex1  sex2 resp1 resp2 resp3 resp4   age ageGrp1 ageGrp2 ageGrp3
    #>    <int> <dbl> <dbl> <dbl> <dbl> <dbl> <dbl> <int>   <dbl>   <dbl>   <dbl>
    #>  1   201     0     1     1     0     0     0    67       0       1       0
    #>  2   201     1     0     1     0     0     0    74       0       0       1
    #>  3   201     1     0     1     0     0     0    60       0       1       0
    #>  4   201     0     1     1     0     0     0    60       0       1       0
    #>  5   201     0     1     1     0     0     0    85       0       0       0
    #>  6   201     1     0     0     1     0     0    86       0       0       0
    #>  7   201     1     0     1     0     0     0    80       0       0       0
    #>  8   201     0     1     1     0     0     0    60       0       1       0
    #>  9   201     1     0     1     0     0     0    62       0       1       0
    #> 10   201     0     1     1     0     0     0    72       0       0       1
    #> # ℹ 182 more rows
    #> # ℹ 127 more variables: ageGrp4 <dbl>, ageGrp5 <dbl>, marital1 <dbl>,
    #> #   marital2 <dbl>, marital3 <dbl>, marital4 <dbl>, marital5 <dbl>,
    #> #   marital6 <dbl>, alone <dbl>, MF <dbl>, DDS <dbl>, FG01 <dbl>, FG02 <dbl>,
    #> #   FG03 <dbl>, FG04 <dbl>, FG05 <dbl>, FG06 <dbl>, FG07 <dbl>, FG08 <dbl>,
    #> #   FG09 <dbl>, FG10 <dbl>, FG11 <dbl>, proteinRich <dbl>, pProtein <dbl>,
    #> #   aProtein <dbl>, pVitA <dbl>, aVitA <dbl>, xVitA <dbl>, ironRich <dbl>, …
…
The `estimateClassic` function is used for all the standard RAM-OP
indicators except for anthropometry. The function is used as follows:

``` r
## Process and recode RAM-OP data (testSVY)
df <- create_op(svy = testSVY)

## Perform classic estimation on recoded data using appropriate weights provided by testPSU
classicDF <- estimate_classic(x = df, w = testPSU)
```

This results in (using limited replicates to reduce computing time):

    #> # A tibble: 136 × 10
    #>    INDICATOR EST.ALL LCL.ALL UCL.ALL EST.MALES LCL.MALES UCL.MALES EST.FEMALES
    #>    <chr>       <dbl>   <dbl>   <dbl>     <dbl>     <dbl>     <dbl>       <dbl>
    #>  1 resp1      0.859   0.794   0.880     0.803     0.743     0.835      0.849  
    #>  2 resp2      0.0885  0.075   0.152     0.1       0.0308    0.125      0.123  
    #>  3 resp3      0.0417  0.0219  0.0729    0.0658    0.0309    0.166      0.0169 
    #>  4 resp4      0       0       0.0229    0.0132    0         0.0889     0.00826
    #>  5 age       70.7    69.4    72.1      71.0      69.3      72.5       71.1    
    #>  6 ageGrp1    0       0       0         0         0         0          0      
    #>  7 ageGrp2    0.536   0.441   0.586     0.470     0.423     0.609      0.517  
    #>  8 ageGrp3    0.229   0.181   0.328     0.325     0.211     0.380      0.218  
    #>  9 ageGrp4    0.198   0.123   0.277     0.153     0.0890    0.268      0.272  
    #> 10 ageGrp5    0.0365  0.0219  0.0573    0.0488    0.0236    0.0747     0.0391 
    #> # ℹ 126 more rows
    #> # ℹ 2 more variables: LCL.FEMALES <dbl>, UCL.FEMALES <dbl>
…
The two sets of estimates are then merged using the `merge_op` function
as follows:

``` r
## Merge classicDF and probitDF
resultsDF <- merge_op(x = classicDF, y = probitDF)

resultsDF
```

which results in:

    #> # A tibble: 139 × 13
    #>    INDICATOR GROUP       LABEL TYPE  EST.ALL LCL.ALL UCL.ALL EST.MALES LCL.MALES
    #>    <fct>     <fct>       <fct> <fct>   <dbl>   <dbl>   <dbl>     <dbl>     <dbl>
    #>  1 resp1     Survey      Resp… Prop…  0.859   0.794   0.880     0.803     0.743 
    #>  2 resp2     Survey      Resp… Prop…  0.0885  0.075   0.152     0.1       0.0308
    #>  3 resp3     Survey      Resp… Prop…  0.0417  0.0219  0.0729    0.0658    0.0309
    #>  4 resp4     Survey      Resp… Prop…  0       0       0.0229    0.0132    0     
    #>  5 age       Demography… Mean… Mean  70.7    69.4    72.1      71.0      69.3   
    #>  6 ageGrp1   Demography… Self… Prop…  0       0       0         0         0     
    #>  7 ageGrp2   Demography… Self… Prop…  0.536   0.441   0.586     0.470     0.423 
    #>  8 ageGrp3   Demography… Self… Prop…  0.229   0.181   0.328     0.325     0.211 
    #>  9 ageGrp4   Demography… Self… Prop…  0.198   0.123   0.277     0.153     0.0890
    #> 10 ageGrp5   Demography… Self… Prop…  0.0365  0.0219  0.0573    0.0488    0.0236
    #> # ℹ 129 more rows
    #> # ℹ 4 more variables: UCL.MALES <dbl>, EST.FEMALES <dbl>, LCL.FEMALES <dbl>,
    #> #   UCL.FEMALES <dbl>
…
