Create older people indicators dataframe on activities of daily living from survey data collected using the standard RAM-OP questionnaire — create_op_adl • oldr
…
unmetNeed
Need help but has no helper

    Author

    Mark Myatt

    Examples

# Create activities of daily living indicators dataset from RAM-OP survey
# data collected from Addis Ababa, Ethiopia
create_op_adl(testSVY)
#> # A tibble: 192 × 15
#>      psu  sex1  sex2 ADL01 ADL02 ADL03 ADL04 ADL05 ADL06 scoreADL classADL1
#>    <int> <dbl> <dbl> <dbl> <dbl> <dbl> <dbl> <dbl> <dbl>    <dbl>     <dbl>
#>  1   201     0     1     1     1     1     1     1     1        6         1
#>  2   201     1     0     1     1     1     1     0     1        5         1
#>  3   201     1     0     1     1     1     1     1     1        6         1
#>  4   201     0     1     1     1     1     1     1     1        6         1
#>  5   201     0     1     1     1     1     1     0     1        5         1
#>  6   201     1     0     1     1     1     1     1     1        6         1
#>  7   201     1     0     1     1     1     1     1     1        6         1
#>  8   201     0     1     0     1     1     0     0     1        3         0
#>  9   201     1     0     1     1     1     1     0     1        5         1
#> 10   201     0     1     1     1     1     1     1     1        6         1
#> # ℹ 182 more rows
#> # ℹ 4 more variables: classADL2 <dbl>, classADL3 <dbl>, hasHelp <dbl>,
#> #   unmetNeed <dbl>
…
