The RAM-OP Workflow • oldr
…
The oldr package provides functions to use for all steps
after data collection. These functions were developed specifically for
the data structure created by the EpiData
or the Open Data
Kit collection tools. The data structure produced by these
collection tools is shown by the dataset testSVY included
in the oldr package.

testSVY
#> # A tibble: 192 × 90
#>      ad2   psu    hh    id    d1    d2    d3    d4    d5    f1   f2a   f2b   f2c
#>    <int> <int> <int> <int> <int> <int> <int> <int> <int> <int> <int> <int> <int>
#>  1     1   201     1     1     1    67     2     5     2     3     2     1     1
#>  2     1   201     2     1     1    74     1     2     2     3     2     1     1
#>  3     1   201     3     1     1    60     1     2     2     2     2     2     2
#>  4     1   201     3     2     1    60     2     2     2     3     2     2     1
#>  5     1   201     4     1     1    85     2     5     2     3     2     1     1
#>  6     1   201     5     1     2    86     1     5     1     4     2     1     1
#>  7     1   201     6     1     1    80     1     5     2     3     2     1     1
#>  8     1   201     6     2     1    60     2     5     2     3     2     2     1
#>  9     1   201     7     1     1    62     1     2     2     2     2     1     1
#> 10     1   201     8     1     1    72     2     5     2     2     2     1     1
#> # … with 182 more rows, and 77 more variables: f2d <int>, f2e <int>, f2f <int>,
#> #   f2g <int>, f2h <int>, f2i <int>, f2j <int>, f2k <int>, f2l <int>,
#> #   f2m <int>, f2n <int>, f2o <int>, f2p <int>, f2q <int>, f2r <int>,
#> #   f2s <int>, f3 <int>, f4 <int>, f5 <int>, f6 <int>, f7 <int>, a1 <int>,
#> #   a2 <int>, a3 <int>, a4 <int>, a5 <int>, a6 <int>, a7 <int>, a8 <int>,
#> #   k6a <int>, k6b <int>, k6c <int>, k6d <int>, k6e <int>, k6f <int>,
#> #   ds1 <int>, ds2 <int>, ds3 <int>, ds4 <int>, ds5 <int>, ds6a <int>, …
…
For a standard RAM-OP implementation, this step is performed in R as
follows:

## Process and recode all standard RAM-OP indicators in the testSVY dataset
create_op_all(svy = testSVY)

which results in the following output:

#> # A tibble: 192 × 138
#>      psu  sex1  sex2 resp1 resp2 resp3 resp4   age ageGrp1 ageGrp2 ageGrp3
#>    <int> <dbl> <dbl> <dbl> <dbl> <dbl> <dbl> <int>   <dbl>   <dbl>   <dbl>
#>  1   201     0     1     1     0     0     0    67       0       1       0
#>  2   201     1     0     1     0     0     0    74       0       0       1
#>  3   201     1     0     1     0     0     0    60       0       1       0
#>  4   201     0     1     1     0     0     0    60       0       1       0
#>  5   201     0     1     1     0     0     0    85       0       0       0
#>  6   201     1     0     0     1     0     0    86       0       0       0
#>  7   201     1     0     1     0     0     0    80       0       0       0
#>  8   201     0     1     1     0     0     0    60       0       1       0
#>  9   201     1     0     1     0     0     0    62       0       1       0
#> 10   201     0     1     1     0     0     0    72       0       0       1
#> # … with 182 more rows, and 127 more variables: ageGrp4 <dbl>, ageGrp5 <dbl>,
#> #   marital1 <dbl>, marital2 <dbl>, marital3 <dbl>, marital4 <dbl>,
#> #   marital5 <dbl>, marital6 <dbl>, alone <dbl>, MF <dbl>, DDS <dbl>,
#> #   FG01 <dbl>, FG02 <dbl>, FG03 <dbl>, FG04 <dbl>, FG05 <dbl>, FG06 <dbl>,
#> #   FG07 <dbl>, FG08 <dbl>, FG09 <dbl>, FG10 <dbl>, FG11 <dbl>,
#> #   proteinRich <dbl>, pProtein <dbl>, aProtein <dbl>, pVitA <dbl>,
#> #   aVitA <dbl>, xVitA <dbl>, ironRich <dbl>, caRich <dbl>, znRich <dbl>, …
…
The estimateClassic function is used for all the
standard RAM-OP indicators except for anthropometry. The function is
used as follows:

## Process and recode RAM-OP data (testSVY)
df <- create_op_all(svy = testSVY)

## Perform classic estimation on recoded data using appropriate weights provided by testPSU
classicDF <- estimate_classic(x = df, w = testPSU)

This results in (using limited replicates to reduce computing
time):

#> # A tibble: 136 × 10
#>    INDICATOR EST.ALL LCL.ALL UCL.ALL EST.MALES LCL.MALES UCL.M…¹ EST.F…² LCL.F…³
#>    <chr>       <dbl>   <dbl>   <dbl>     <dbl>     <dbl>   <dbl>   <dbl>   <dbl>
#>  1 resp1      0.870   0.809   0.896     0.803    0.745    0.867   0.841  7.93e-1
#>  2 resp2      0.109   0.05    0.153     0.103    0.0491   0.156   0.113  5.38e-2
#>  3 resp3      0.0312  0.0167  0.0521    0.0920   0.0328   0.120   0.0192 3.42e-3
#>  4 resp4      0.0104  0       0.0240    0.0133   0        0.0422  0      0      
#>  5 age       70.7    69.3    72.6      71.8     70.6     73.1    70.3    6.91e+1
#>  6 ageGrp1    0       0       0         0        0        0       0      0      
#>  7 ageGrp2    0.526   0.455   0.598     0.434    0.377    0.515   0.575  4.54e-1
#>  8 ageGrp3    0.234   0.196   0.292     0.322    0.221    0.417   0.197  1.24e-1
#>  9 ageGrp4    0.193   0.147   0.255     0.194    0.147    0.241   0.217  1.83e-1
#> 10 ageGrp5    0.0469  0.0115  0.0667    0.0526   0.00471  0.115   0.0189 0      
#> # … with 126 more rows, 1 more variable: UCL.FEMALES <dbl>, and abbreviated
#> #   variable names ¹​UCL.MALES, ²​EST.FEMALES, ³​LCL.FEMALES
…
The two sets of estimates are then merged using the
mergeEstimates function as follows:

## Merge classicDF and probitDF
resultsDF <- merge_estimates(x = classicDF, y = probitDF)

resultsDF

which results in:

#> # A tibble: 139 × 13
#>    INDICATOR GROUP   LABEL TYPE  EST.ALL LCL.ALL UCL.ALL EST.M…¹ LCL.M…² UCL.M…³
#>    <fct>     <fct>   <fct> <fct>   <dbl>   <dbl>   <dbl>   <dbl>   <dbl>   <dbl>
#>  1 resp1     Survey  Resp… Prop…  0.870   0.809   0.896   0.803  7.45e-1  0.867 
#>  2 resp2     Survey  Resp… Prop…  0.109   0.05    0.153   0.103  4.91e-2  0.156 
#>  3 resp3     Survey  Resp… Prop…  0.0312  0.0167  0.0521  0.0920 3.28e-2  0.120 
#>  4 resp4     Survey  Resp… Prop…  0.0104  0       0.0240  0.0133 0        0.0422
#>  5 age       Demogr… Mean… Mean  70.7    69.3    72.6    71.8    7.06e+1 73.1   
#>  6 ageGrp1   Demogr… Self… Prop…  0       0       0       0      0        0     
#>  7 ageGrp2   Demogr… Self… Prop…  0.526   0.455   0.598   0.434  3.77e-1  0.515 
#>  8 ageGrp3   Demogr… Self… Prop…  0.234   0.196   0.292   0.322  2.21e-1  0.417 
#>  9 ageGrp4   Demogr… Self… Prop…  0.193   0.147   0.255   0.194  1.47e-1  0.241 
#> 10 ageGrp5   Demogr… Self… Prop…  0.0469  0.0115  0.0667  0.0526 4.71e-3  0.115 
#> # … with 129 more rows, 3 more variables: EST.FEMALES <dbl>, LCL.FEMALES <dbl>,
#> #   UCL.FEMALES <dbl>, and abbreviated variable names ¹​EST.MALES, ²​LCL.MALES,
#> #   ³​UCL.MALES
…
