The RAM-OP Workflow • oldr
…
  Changelog

      The RAM-OP Workflow

                        Ernest Guevarra

      Source: vignettes/ramOPworkflow.Rmd
      ramOPworkflow.Rmd

The RAM-OP Workflow is summarised in the diagram below.

The oldr package provides functions to use for all steps after data collection. These functions were developed specifically for the data structure created by the EpiData or the Open Data Kit collection tools. The data structure produced by these collection tools is shown by the dataset testSVY included in the oldr package.

testSVY
#> # A tibble: 192 x 90
#>      ad2   psu    hh    id    d1    d2    d3    d4    d5    f1   f2a   f2b   f2c
#>    <int> <int> <int> <int> <int> <int> <int> <int> <int> <int> <int> <int> <int>
#>  1     1   201     1     1     1    67     2     5     2     3     2     1     1
#>  2     1   201     2     1     1    74     1     2     2     3     2     1     1
#>  3     1   201     3     1     1    60     1     2     2     2     2     2     2
#>  4     1   201     3     2     1    60     2     2     2     3     2     2     1
#>  5     1   201     4     1     1    85     2     5     2     3     2     1     1
#>  6     1   201     5     1     2    86     1     5     1     4     2     1     1
#>  7     1   201     6     1     1    80     1     5     2     3     2     1     1
#>  8     1   201     6     2     1    60     2     5     2     3     2     2     1
#>  9     1   201     7     1     1    62     1     2     2     2     2     1     1
#> 10     1   201     8     1     1    72     2     5     2     2     2     1     1
#> # … with 182 more rows, and 77 more variables: f2d <int>, f2e <int>, f2f <int>,
#> #   f2g <int>, f2h <int>, f2i <int>, f2j <int>, f2k <int>, f2l <int>,
#> #   f2m <int>, f2n <int>, f2o <int>, f2p <int>, f2q <int>, f2r <int>,
#> #   f2s <int>, f3 <int>, f4 <int>, f5 <int>, f6 <int>, f7 <int>, a1 <int>,
#> #   a2 <int>, a3 <int>, a4 <int>, a5 <int>, a6 <int>, a7 <int>, a8 <int>,
#> #   k6a <int>, k6b <int>, k6c <int>, k6d <int>, k6e <int>, k6f <int>,
#> #   ds1 <int>, ds2 <int>, ds3 <int>, ds4 <int>, ds5 <int>, ds6a <int>,
#> #   ds6b <int>, ds6c <int>, h1 <int>, h2 <int>, h3 <int>, h4 <int>, h5 <int>,
#> #   h6 <int>, m1 <int>, m2a <int>, m2b <int>, m2c <int>, m2d <int>, m2e <int>,
…
Miscellaneous

create_op_misc; create_op_misc_males; create_op_misc_females

A final function in the processing and recoding set - create_op_all - is provided to perform the processing and recoding of all indicators or indicator sets. This function allows for the specification of which indicators or indicator sets to process and recode which is useful for cases where not all the indicators or indicator sets have been collected or if only specific indicators or indicator sets need to be analysed or reported. This function also specifies whether a specific gender subset of the data is needed.

For a standard RAM-OP implementation, this step is performed in R as follows:

## Process and recode all standard RAM-OP indicators in the testSVY dataset
create_op_all(svy = testSVY)

which results in the following output:

#> # A tibble: 192 x 138
#>      psu  sex1  sex2 resp1 resp2 resp3 resp4   age ageGrp1 ageGrp2 ageGrp3
#>    <int> <dbl> <dbl> <dbl> <dbl> <dbl> <dbl> <int>   <dbl>   <dbl>   <dbl>
#>  1   201     0     1     1     0     0     0    67       0       1       0
#>  2   201     1     0     1     0     0     0    74       0       0       1
#>  3   201     1     0     1     0     0     0    60       0       1       0
#>  4   201     0     1     1     0     0     0    60       0       1       0
#>  5   201     0     1     1     0     0     0    85       0       0       0
#>  6   201     1     0     0     1     0     0    86       0       0       0
#>  7   201     1     0     1     0     0     0    80       0       0       0
#>  8   201     0     1     1     0     0     0    60       0       1       0
#>  9   201     1     0     1     0     0     0    62       0       1       0
#> 10   201     0     1     1     0     0     0    72       0       0       1
#> # … with 182 more rows, and 127 more variables: ageGrp4 <dbl>, ageGrp5 <dbl>,
#> #   marital1 <dbl>, marital2 <dbl>, marital3 <dbl>, marital4 <dbl>,
#> #   marital5 <dbl>, marital6 <dbl>, alone <dbl>, MF <dbl>, DDS <dbl>,
#> #   FG01 <dbl>, FG02 <dbl>, FG03 <dbl>, FG04 <dbl>, FG05 <dbl>, FG06 <dbl>,
#> #   FG07 <dbl>, FG08 <dbl>, FG09 <dbl>, FG10 <dbl>, FG11 <dbl>,
#> #   proteinRich <dbl>, pProtein <dbl>, aProtein <dbl>, pVitA <dbl>,
#> #   aVitA <dbl>, xVitA <dbl>, ironRich <dbl>, caRich <dbl>, znRich <dbl>,
#> #   vitB1 <dbl>, vitB2 <dbl>, vitB3 <dbl>, vitB6 <dbl>, vitB12 <dbl>,
#> #   vitBcomplex <dbl>, HHS1 <dbl>, HHS2 <dbl>, HHS3 <dbl>, wgVisionD0 <dbl>,
…
Classic estimator

The function estimateClassic in oldr implements the blocked weighted bootstrap classic estimator of RAM-OP. This function uses the bootClassic statistic to estimate indicator values.

The estimateClassic function is used for all the standard RAM-OP indicators except for anthropometry. The function is used as follows:

## Process and recode RAM-OP data (testSVY)
df <- create_op_all(svy = testSVY)

## Perform classic estimation on recoded data using appropriate weights provided by testPSU
classicDF <- estimate_classic(x = df, w = testPSU)

This results in (using limited replicates to reduce computing time):

#> # A tibble: 136 x 10
#>    INDICATOR EST.ALL LCL.ALL UCL.ALL EST.MALES LCL.MALES UCL.MALES EST.FEMALES
#>    <chr>       <dbl>   <dbl>   <dbl>     <dbl>     <dbl>     <dbl>       <dbl>
#>  1 resp1      0.865  8.31e-1  0.870     0.854     0.765     0.951       0.877 
#>  2 resp2      0.104  7.50e-2  0.125     0.0789    0.0296    0.108       0.0882
#>  3 resp3      0.0312 7.29e-3  0.0469    0.0471    0.0164    0.105       0.0273
#>  4 resp4      0.0104 0.       0.0198    0.0247    0         0.0351      0     
#>  5 age       71.3    6.97e+1 73.4      71.8      69.7      74.0        70.3   
#>  6 ageGrp1    0      0.       0         0         0         0           0     
#>  7 ageGrp2    0.495  4.00e-1  0.592     0.463     0.365     0.584       0.547 
#>  8 ageGrp3    0.245  2.19e-1  0.283     0.284     0.160     0.395       0.235 
#>  9 ageGrp4    0.224  1.14e-1  0.257     0.160     0.0918    0.317       0.217 
#> 10 ageGrp5    0.0365 1.35e-2  0.0781    0.0725    0.0523    0.0780      0.0174
#> # … with 126 more rows, and 2 more variables: LCL.FEMALES <dbl>,
#> #   UCL.FEMALES <dbl>
…
The two sets of estimates are then merged using the mergeEstimates function as follows:

## Merge classicDF and probitDF
resultsDF <- merge_estimates(x = classicDF, y = probitDF)

resultsDF

which results in:

#> # A tibble: 139 x 13
#>    INDICATOR GROUP LABEL TYPE  EST.ALL LCL.ALL UCL.ALL EST.MALES LCL.MALES
#>    <fct>     <fct> <fct> <fct>   <dbl>   <dbl>   <dbl>     <dbl>     <dbl>
#>  1 resp1     Surv… Resp… Prop…  0.865  8.31e-1  0.870     0.854     0.765 
#>  2 resp2     Surv… Resp… Prop…  0.104  7.50e-2  0.125     0.0789    0.0296
#>  3 resp3     Surv… Resp… Prop…  0.0312 7.29e-3  0.0469    0.0471    0.0164
#>  4 resp4     Surv… Resp… Prop…  0.0104 0.       0.0198    0.0247    0     
#>  5 age       Demo… Mean… Mean  71.3    6.97e+1 73.4      71.8      69.7   
#>  6 ageGrp1   Demo… Self… Prop…  0      0.       0         0         0     
#>  7 ageGrp2   Demo… Self… Prop…  0.495  4.00e-1  0.592     0.463     0.365 
#>  8 ageGrp3   Demo… Self… Prop…  0.245  2.19e-1  0.283     0.284     0.160 
#>  9 ageGrp4   Demo… Self… Prop…  0.224  1.14e-1  0.257     0.160     0.0918
#> 10 ageGrp5   Demo… Self… Prop…  0.0365 1.35e-2  0.0781    0.0725    0.0523
#> # … with 129 more rows, and 4 more variables: UCL.MALES <dbl>,
#> #   EST.FEMALES <dbl>, LCL.FEMALES <dbl>, UCL.FEMALES <dbl>
…
