Create older people indicators dataframe on activities of daily living from survey data collected using the standard RAM-OP questionnaire — create_op_adl • oldr
…
unmetNeed
Need help but has no helper

    Author

    Mark Myatt

    Examples

# Create activities of daily living indicators dataset from RAM-OP survey
# data collected from Addis Ababa, Ethiopia
create_op_adl(testSVY)
#> # A tibble: 192 × 15
#>      psu  sex1  sex2 ADL01 ADL02 ADL03 ADL04 ADL05 ADL06 score…¹ class…² class…³
#>    <int> <dbl> <dbl> <dbl> <dbl> <dbl> <dbl> <dbl> <dbl>   <dbl>   <dbl>   <dbl>
#>  1   201     0     1     1     1     1     1     1     1       6       1       0
#>  2   201     1     0     1     1     1     1     0     1       5       1       0
#>  3   201     1     0     1     1     1     1     1     1       6       1       0
#>  4   201     0     1     1     1     1     1     1     1       6       1       0
#>  5   201     0     1     1     1     1     1     0     1       5       1       0
#>  6   201     1     0     1     1     1     1     1     1       6       1       0
#>  7   201     1     0     1     1     1     1     1     1       6       1       0
#>  8   201     0     1     0     1     1     0     0     1       3       0       1
#>  9   201     1     0     1     1     1     1     0     1       5       1       0
#> 10   201     0     1     1     1     1     1     1     1       6       1       0
#> # … with 182 more rows, 3 more variables: classADL3 <dbl>, hasHelp <dbl>,
#> #   unmetNeed <dbl>, and abbreviated variable names ¹​scoreADL, ²​classADL1,
#> #   ³​classADL2
…
