RAM-OP Survey Dataset — testSVY • oldr
…
  wg3Do you have difficulty walking or climbing steps?

  wg4Do you have difficulty remembering or concentrating?

  wg5Do you have difficulty with self-care such as washing all
    over or dressing?

  wg6Using your usual (customary) language, do you have
    difficulty communicating, for example understanding or being understood?

    Examples

testSVY
#> # A tibble: 192 x 90
#>      ad2   psu    hh    id    d1    d2    d3    d4    d5    f1   f2a   f2b   f2c
#>    <int> <int> <int> <int> <int> <int> <int> <int> <int> <int> <int> <int> <int>
#>  1     1   201     1     1     1    67     2     5     2     3     2     1     1
#>  2     1   201     2     1     1    74     1     2     2     3     2     1     1
#>  3     1   201     3     1     1    60     1     2     2     2     2     2     2
#>  4     1   201     3     2     1    60     2     2     2     3     2     2     1
#>  5     1   201     4     1     1    85     2     5     2     3     2     1     1
#>  6     1   201     5     1     2    86     1     5     1     4     2     1     1
#>  7     1   201     6     1     1    80     1     5     2     3     2     1     1
#>  8     1   201     6     2     1    60     2     5     2     3     2     2     1
#>  9     1   201     7     1     1    62     1     2     2     2     2     1     1
#> 10     1   201     8     1     1    72     2     5     2     2     2     1     1
#> # … with 182 more rows, and 77 more variables: f2d <int>, f2e <int>, f2f <int>,
#> #   f2g <int>, f2h <int>, f2i <int>, f2j <int>, f2k <int>, f2l <int>,
#> #   f2m <int>, f2n <int>, f2o <int>, f2p <int>, f2q <int>, f2r <int>,
#> #   f2s <int>, f3 <int>, f4 <int>, f5 <int>, f6 <int>, f7 <int>, a1 <int>,
#> #   a2 <int>, a3 <int>, a4 <int>, a5 <int>, a6 <int>, a7 <int>, a8 <int>,
#> #   k6a <int>, k6b <int>, k6c <int>, k6d <int>, k6e <int>, k6f <int>,
#> #   ds1 <int>, ds2 <int>, ds3 <int>, ds4 <int>, ds5 <int>, ds6a <int>,
#> #   ds6b <int>, ds6c <int>, h1 <int>, h2 <int>, h3 <int>, h4 <int>, h5 <int>,
#> #   h6 <int>, m1 <int>, m2a <int>, m2b <int>, m2c <int>, m2d <int>, m2e <int>,
…
